﻿{
  "dependencies": {
    "Microsoft.NETCore.App": {
      "version": "1.0.0-rc2-3002702",
      "type": "platform"
    },
    "IdentityServer4": "1.0.0-beta3",
    "Microsoft.AspNetCore.Diagnostics": "1.0.0-rc2-final",
    "Microsoft.AspNetCore.Server.IISIntegration": "1.0.0-rc2-final",
    "Microsoft.AspNetCore.Server.Kestrel": "1.0.0-rc2-final",
    "Microsoft.AspNetCore.Mvc": "1.0.0-rc2-final",
    "Microsoft.AspNetCore.StaticFiles": "1.0.0-rc2-final",
    "Microsoft.Extensions.Configuration": "1.0.0-rc2-final",
    "Microsoft.Extensions.Configuration.FileProviderExtensions": "1.0.0-rc1-final",
    "Microsoft.Extensions.Configuration.Json": "1.0.0-rc2-final",
    "Microsoft.Extensions.Logging": "1.0.0-rc2-final",
    "Microsoft.Extensions.Logging.Console": "1.0.0-rc2-final",
    "Microsoft.Extensions.Logging.Debug": "1.0.0-rc2-final",
    "Microsoft.VisualStudio.Web.BrowserLink.Loader": "14.0.0-rc2-final",    
    "Microsoft.Extensions.Configuration.UserSecrets": "1.0.0-rc2-final",
    "Microsoft.Extensions.Configuration.EnvironmentVariables": "1.0.0-rc2-final",
    "Microsoft.AspNetCore.Authentication.Google": "1.0.0-rc2-final"
  },

  "tools": {
    "Microsoft.AspNetCore.Server.IISIntegration.Tools": {
      "version": "1.0.0-preview1-final",
      "imports": "portable-net45+win8+dnxcore50"
    }
  },

  "frameworks": {
    "netcoreapp1.0": {
      "imports": [
        "dotnet5.6",
        "dnxcore50",
        "portable-net45+win8"
      ]
    }
  },

  "buildOptions": {
    "emitEntryPoint": true,
    "preserveCompilationContext": true
  },

  "runtimeOptions": {
    "gcServer": true
  },

  "publishOptions": {
    "include": [
      "wwwroot",
      "web.config"
    ]
  },

  "scripts": {
    "postpublish": [ "dotnet publish-iis --publish-folder %publish:OutputPath% --framework %publish:FullTargetFramework%" ]
  },
  "userSecretsId": "aspnet-auth-20160601110335"
}
